Analysis of the U.S. Federal Reserveâ€™s Beige Book using Sentiment Analysis
…
  return(sentiment)
}

Now that we have a function to perform all four sentiment analysis lexicons, we can simply iterate over all 16 files using a for loop.

sentiments <- data_frame()

for(i in my_files){
  sentiments <- rbind(sentiments, GetSentiments(i))
}

sentiments

# A tibble: 64 x 6
   negative positive sentiment file                   YYYYMM method  
   <chr>    <chr>    <chr>     <chr>                  <chr>  <chr>   
 1 202      409      207       Beigebook_20170118.pdf 201701 bing    
 2 337      1120     783       Beigebook_20170118.pdf 201701 nrc     
 3 234      229      -5        Beigebook_20170118.pdf 201701 loughran
 4 N/A      N/A      612       Beigebook_20170118.pdf 201701 afinn   
 5 207      409      202       Beigebook_20170301.pdf 201703 bing    
 6 291      1123     832       Beigebook_20170301.pdf 201703 nrc     
 7 219      206      -13       Beigebook_20170301.pdf 201703 loughran
 8 N/A      N/A      584       Beigebook_20170301.pdf 201703 afinn   
 9 243      465      222       Beigebook_20170419.pdf 201704 bing    
10 328      1206     878       Beigebook_20170419.pdf 201704 nrc     
# ... with 54 more rows
…
