LOGM 655 Student Project Report
…
This graph shows the distribution of word n in proportion to the total number of words in an album

#Inverse Document Frequency and tf-idf

ytg_words<-ytg_words %>%
  bind_tf_idf(word, album, n)

ytg_words %>%
  dplyr::arrange(dplyr::desc(tf_idf))

# A tibble: 1,367 x 7
   album               word           n total     tf   idf tf_idf
   <fct>               <chr>      <int> <int>  <dbl> <dbl>  <dbl>
 1 Mirror Master       forever       20   748 0.0267 1.39  0.0371
 2 Home of the Strange silver        19   762 0.0249 1.39  0.0346
 3 Young the Giant     wonderful     11   757 0.0145 1.39  0.0201
 4 Home of the Strange grave         11   762 0.0144 1.39  0.0200
 5 Mirror Master       goodnight     10   748 0.0134 1.39  0.0185
 6 Mirror Master       simplifies    10   748 0.0134 1.39  0.0185
 7 Home of the Strange rainwater     10   762 0.0131 1.39  0.0182
 8 Mirror Master       leave          9   748 0.0120 1.39  0.0167
 9 Young the Giant     wrong          9   757 0.0119 1.39  0.0165
10 Mirror Master       glory         16   748 0.0214 0.693 0.0148
# ... with 1,357 more rows
…
Looking at the tf-idf instead of word frequency, we are able to pick out unique words between the albums. Above, time is a frequent word throughout all the albums, but when we look at the td-idf, none of the albums list time anymore. Thats because time was weighted for appearing in all the albums. Unfortunatly, most of the unique words are song titles (body, cough syrup, anagram, camera, paralyzed, silver tongue, amerika, simplifies, glory, and oblivion.) This makes sense because song titles themselves often foreshadow to what a song is about. Lets add these words to a custom stop words list to see if we can gain more insight from removing them.

custom_stop_words <- bind_rows(data_frame(word = c("body", "cough", "syrup", "anagram", "camera", "paralyzed", "silver", "tongue", "amerika", "simplifies", "glory", "oblivion" ), lexicon=c("custom")), 
                               stop_words)

custom_stop_words

# A tibble: 1,161 x 2
   word       lexicon
   <chr>      <chr>  
 1 body       custom 
 2 cough      custom 
 3 syrup      custom 
 4 anagram    custom 
 5 camera     custom 
 6 paralyzed  custom 
 7 silver     custom 
 8 tongue     custom 
 9 amerika    custom 
10 simplifies custom 
# ... with 1,151 more rows
…
#Inverse Document Frequency and tf-idf with custom stop words

ytg_new_words <- ytg_tidy %>%
  count(album, word, sort = TRUE) %>%
  dplyr::anti_join(custom_stop_words) %>%
  ungroup()

ytg_new_words<-ytg_new_words %>%
  bind_tf_idf(word, album, n)

ytg_new_words %>%
  dplyr::arrange(dplyr::desc(tf_idf))

# A tibble: 1,353 x 6
   album               word          n      tf   idf tf_idf
   <fct>               <chr>     <int>   <dbl> <dbl>  <dbl>
 1 Mirror Master       forever      20 0.0279   1.39 0.0387
 2 Home of the Strange grave        11 0.0152   1.39 0.0211
 3 Young the Giant     wonderful    11 0.0149   1.39 0.0206
 4 Mirror Master       goodnight    10 0.0140   1.39 0.0194
 5 Home of the Strange rainwater    10 0.0139   1.39 0.0192
 6 Mirror Master       leave         9 0.0126   1.39 0.0174
 7 Young the Giant     wrong         9 0.0122   1.39 0.0169
 8 Mirror Master       stick         8 0.0112   1.39 0.0155
 9 Mirror Master       master        7 0.00978  1.39 0.0136
10 Home of the Strange watched       7 0.00970  1.39 0.0134
# ... with 1,343 more rows
…
These words illicit more feelings, than the original word frequency analysis. This gives us an overall feel of what each album is like.

Relationships between words

So far, this project has only look at singular words. To gain more fidelity in the themes and sentiment beyond individual words, we need to examine the relationship between words. This next segment tokenizes based on pairs of adjacent words or ngrams. In this case we will look at bigrams, or two consecutive words. First lets look at the most frequent paired words in the title album.

#Finds all the combinations of bigrams
ytg_bigrams<-ytg_tidy %>%
  unnest_tokens(bigram, word, token = "ngrams", n=2)

#Counts the most frequent bigrams
ytg_bigrams %>%
  count(bigram, sort=TRUE)

# A tibble: 3,459 x 2
   bigram      n
   <chr>   <int>
 1 <NA>       65
 2 in the     64
 3 on the     39
 4 and i      36
 5 i want     36
 6 in my      34
 7 all the    32
 8 of the     29
 9 cause i    26
10 call me    25
# ... with 3,449 more rows
…
bigrams_filtered <- bigrams_separated %>%
  filter(!word1 %in% stop_words$word) %>%
  filter(!word2 %in% stop_words$word)

# Find words that are duplicated to filter out
duplicate_bigrams <- bigrams_filtered %>% 
  filter(word1 == word2)

bigram_counts <- bigrams_filtered %>% 
  count(word1, word2, sort = TRUE)%>%
  filter(!word1 %in% duplicate_bigrams$word1)

bigram_counts

# A tibble: 267 x 3
   word1    word2         n
   <chr>    <chr>     <int>
 1 <NA>     <NA>         65
 2 live     forever      12
 3 dance    floor         9
 4 body     tells         6
 5 heart    beats         6
 6 cough    syrup         5
 7 feel     wonderful     5
 8 break    free          4
 9 mind     losing        4
10 oblivion land          4
# ... with 257 more rows
…
